package connect2tech.drools.grocery
 
import connect2tech.drools.grocery.*
import function connect2tech.drools.grocery.Utility.helper;
import java.math.BigDecimal;


dialect "java"
rule "Nagpur Medicine Item"
   when
      item : ItemCity(purchaseCity == ItemCity.City.NAGPUR, 
         typeofItem == ItemCity.Type.MEDICINES)
   then
      BigDecimal tax = new BigDecimal(0.0);
      item.setLocalTax(tax.multiply(item.getSellPrice()));
      helper(drools);
end

rule "Nagpur Groceries Item"
   when
      item : ItemCity(purchaseCity == ItemCity.City.NAGPUR, 
         typeofItem == ItemCity.Type.GROCERIES)
   then
      BigDecimal tax = new BigDecimal(1.0);
      item.setLocalTax(tax.multiply(item.getSellPrice()));
      helper(drools);
end