package connect2tech.drools.jewel1;

import connect2tech.drools.jewel.domain.*;


rule "Offer for Diamond"
	when 
		productObject: Product(type=="diamond")
	then
		productObject.setDiscount(15);
	end
rule "Offer for Gold"
	when 
		productObject: Product(type=="gold")
	then
		productObject.setDiscount(25);
	end