{
  "post-office-box" : "PO, Pune",
  "extended-address" : "Wakad, Pune",
  "street-address" : "Wakad, Street, Pune",
  "locality" : "Pink City, Pune",
  "region" : "PCMC region",
  "postal-code" : "411057",
  "country-name" : "India"
}